Elena

Griffith

Elena

Speedwagon

Speedwagon

Speedwagon
Vandham
Zeke
Bogg

Bill Johnson
Meyneth
Dunban
Luna
Madeline
Speedwagon
Logan Dozier
Joseph
Griffith
Ardougne
Shinji Urbanovsky
Quincy Noah
Zeke
Umino

Umino

Ardougne
Falco
Meyneth

Melia
Pneuma
Shinji Urbanovsky

Vandham

Pneuma

Joseph
Meyneth

Ardougne

Bill Johnson

Ardougne
Elena
Bogg
Zeke

Pneuma
Griffith
Luna
Dunban
Falco
Ardougne
Melia
Umino
Meyneth
Speedwagon
Quincy Noah

Melia
Elena
Ardougne
Madeline

Falco

Umino
